Encoder/fifo.vcd
$date
	Wed Nov 23 06:09:58 2022
$end
$version
	Icarus Verilog
$end
$timescale
	1ps
$end
$scope module fifo_tb $end
$var wire 1 ! axiov $end
$var wire 2 " axiod [1:0] $end
$var reg 8 # byte_in [7:0] $end
$var reg 1 $ clk $end
$var reg 1 % rst $end
$var reg 1 & valid_in $end
$scope module uut $end
$var wire 8 ' byte_in [7:0] $end
$var wire 1 $ clk $end
$var wire 48 ( dest_addr [47:0] $end
$var wire 16 ) ethertype [15:0] $end
$var wire 1 % rst $end
$var wire 48 * source_addr [47:0] $end
$var wire 1 & valid_in $end
$var wire 8 + data_out [7:0] $end
$var wire 1 , buffer_full $end
$var reg 2 - axiod [1:0] $end
$var reg 1 ! axiov $end
$var reg 1 . buffer_ready $end
$var reg 8 / byte_out [7:0] $end
$var reg 3 0 dibit_counter [2:0] $end
$var reg 176 1 hardcoded [175:0] $end
$var reg 12 2 initial_count [11:0] $end
$var reg 12 3 read_counter [11:0] $end
$var reg 1 4 transmit_flag $end
$var reg 12 5 write_counter [11:0] $end
$var integer 32 6 state [31:0] $end
$scope module bram_buffer $end
$var wire 11 7 addra [10:0] $end
$var wire 11 8 addrb [10:0] $end
$var wire 1 $ clka $end
$var wire 8 9 dina [7:0] $end
$var wire 8 : dinb [7:0] $end
$var wire 1 ; ena $end
$var wire 1 < enb $end
$var wire 1 = regcea $end
$var wire 1 > regceb $end
$var wire 1 % rsta $end
$var wire 1 % rstb $end
$var wire 1 ? wea $end
$var wire 1 @ web $end
$var wire 8 A doutb [7:0] $end
$var wire 8 B douta [7:0] $end
$var reg 8 C ram_data_a [7:0] $end
$var reg 8 D ram_data_b [7:0] $end
$scope function clogb2 $end
$var integer 32 E depth [31:0] $end
$upscope $end
$scope begin init_bram_to_zero $end
$var integer 32 F ram_index [31:0] $end
$upscope $end
$scope begin output_register $end
$var reg 8 G douta_reg [7:0] $end
$var reg 8 H doutb_reg [7:0] $end
$upscope $end
$upscope $end
$upscope $end
$scope begin $ivl_for_loop0 $end
$var integer 32 I i [31:0] $end
$upscope $end
$scope begin $ivl_for_loop1 $end
$var integer 32 J i [31:0] $end
$upscope $end
$upscope $end
$enddefinitions $end
#0
$dumpvars
b0 J
b0 I
b0 H
b0 G
b10111011100 F
bx E
b0 D
b0 C
b0 B
b0 A
0@
1?
1>
1=
1<
1;
b0 :
bx 9
bx 8
bx 7
b0 6
bx 5
x4
bx 3
bx 2
bx 1
bx 0
bx /
x.
bx -
x,
b0 +
b111100000000110111011110101011011011111011101111 *
b100000000000 )
b111100000000110111011110101011011011111011101111 (
bx '
x&
x%
0$
bx #
bx "
x!
$end
#10000
b0 /
b0 8
bx C
bx D
b0 0
b0 3
b0 2
0!
1$
#20000
0$
1%
#30000
b0 7
b1010101010101010101010101010101010101010101010101010101110101011111000000001101110111101010110110111110111011111111000000001101110111101010110110111110111011110000100000000000 1
1.
0,
b0 5
b0 D
1$
#40000
0$
0&
0%
#50000
bx B
bx G
b0 C
0.
1$
#60000
0$
1&
b11010010 #
b11010010 '
b11010010 9
#70000
b1 7
14
b1 5
bx D
bx C
b0 B
b0 G
1$
#80000
0$
b1 I
#90000
bx /
b10 7
bx B
bx G
bx +
bx A
bx H
b0 C
b11010010 D
b1 6
b10 5
1$
#100000
0$
b10 I
#110000
b11 7
b11010010 /
b1 "
b1 -
b1010101010101010101010101010101010101010101010101010111010101111100000000110111011110101011011011111011101111111100000000110111011110101011011011111011101111000010000000000001 1
b1 2
1!
b11 5
b11010010 +
b11010010 A
b11010010 H
b0 B
b0 G
1$
#120000
0$
b11 I
#130000
b100 7
b1010101010101010101010101010101010101010101010101011101010111110000000011011101111010101101101111101110111111110000000011011101111010101101101111101110111100001000000000000101 1
b10 2
b100 5
1$
#140000
0$
0&
#150000
b1010101010101010101010101010101010101010101010101110101011111000000001101110111101010110110111110111011111111000000001101110111101010110110111110111011110000100000000000010101 1
b11 2
1$
#160000
0$
#170000
b11010010 C
b1010101010101010101010101010101010101010101010111010101111100000000110111011110101011011011111011101111111100000000110111011110101011011011111011101111000010000000000001010101 1
b100 2
1$
#180000
0$
#190000
b1010101010101010101010101010101010101010101011101010111110000000011011101111010101101101111101110111111110000000011011101111010101101101111101110111100001000000000000101010101 1
b101 2
b11010010 B
b11010010 G
1$
#200000
0$
1&
b11000101 #
b11000101 '
b11000101 9
#210000
b101 7
b1010101010101010101010101010101010101010101110101011111000000001101110111101010110110111110111011111111000000001101110111101010110110111110111011110000100000000000010101010101 1
b110 2
b101 5
1$
#220000
0$
b1 J
#230000
b110 7
b1010101010101010101010101010101010101010111010101111100000000110111011110101011011011111011101111111100000000110111011110101011011011111011101111000010000000000001010101010101 1
b111 2
b110 5
b0 C
1$
#240000
0$
0&
b10 J
#250000
b0 B
b0 G
b1010101010101010101010101010101010101011101010111110000000011011101111010101101101111101110111111110000000011011101111010101101101111101110111100001000000000000101010101010101 1
b1000 2
1$
#260000
0$
#270000
b1010101010101010101010101010101010101110101011111000000001101110111101010110110111110111011111111000000001101110111101010110110111110111011110000100000000000010101010101010101 1
b1001 2
b11000101 C
1$
#280000
0$
#290000
b11000101 B
b11000101 G
b1010101010101010101010101010101010111010101111100000000110111011110101011011011111011101111111100000000110111011110101011011011111011101111000010000000000001010101010101010101 1
b1010 2
1$
#300000
0$
#310000
b1010101010101010101010101010101011101010111110000000011011101111010101101101111101110111111110000000011011101111010101101101111101110111100001000000000000101010101010101010101 1
b1011 2
1$
#320000
0$
#330000
b1010101010101010101010101010101110101011111000000001101110111101010110110111110111011111111000000001101110111101010110110111110111011110000100000000000010101010101010101010101 1
b1100 2
1$
#340000
0$
#350000
b1010101010101010101010101010111010101111100000000110111011110101011011011111011101111111100000000110111011110101011011011111011101111000010000000000001010101010101010101010101 1
b1101 2
1$
#360000
0$
#370000
b1010101010101010101010101011101010111110000000011011101111010101101101111101110111111110000000011011101111010101101101111101110111100001000000000000101010101010101010101010101 1
b1110 2
1$
#380000
0$
#390000
b1010101010101010101010101110101011111000000001101110111101010110110111110111011111111000000001101110111101010110110111110111011110000100000000000010101010101010101010101010101 1
b1111 2
1$
#400000
0$
#410000
b1010101010101010101010111010101111100000000110111011110101011011011111011101111111100000000110111011110101011011011111011101111000010000000000001010101010101010101010101010101 1
b10000 2
1$
#420000
0$
#430000
b1010101010101010101011101010111110000000011011101111010101101101111101110111111110000000011011101111010101101101111101110111100001000000000000101010101010101010101010101010101 1
b10001 2
1$
#440000
0$
#450000
b1010101010101010101110101011111000000001101110111101010110110111110111011111111000000001101110111101010110110111110111011110000100000000000010101010101010101010101010101010101 1
b10010 2
1$
#460000
0$
#470000
b1010101010101010111010101111100000000110111011110101011011011111011101111111100000000110111011110101011011011111011101111000010000000000001010101010101010101010101010101010101 1
b10011 2
1$
#480000
0$
#490000
b1010101010101011101010111110000000011011101111010101101101111101110111111110000000011011101111010101101101111101110111100001000000000000101010101010101010101010101010101010101 1
b10100 2
1$
#500000
0$
#510000
b1010101010101110101011111000000001101110111101010110110111110111011111111000000001101110111101010110110111110111011110000100000000000010101010101010101010101010101010101010101 1
b10101 2
1$
#520000
0$
#530000
b1010101010111010101111100000000110111011110101011011011111011101111111100000000110111011110101011011011111011101111000010000000000001010101010101010101010101010101010101010101 1
b10110 2
1$
#540000
0$
#550000
b1010101011101010111110000000011011101111010101101101111101110111111110000000011011101111010101101101111101110111100001000000000000101010101010101010101010101010101010101010101 1
b10111 2
1$
#560000
0$
#570000
b1010101110101011111000000001101110111101010110110111110111011111111000000001101110111101010110110111110111011110000100000000000010101010101010101010101010101010101010101010101 1
b11000 2
1$
#580000
0$
#590000
b1010111010101111100000000110111011110101011011011111011101111111100000000110111011110101011011011111011101111000010000000000001010101010101010101010101010101010101010101010101 1
b11001 2
1$
#600000
0$
#610000
b1011101010111110000000011011101111010101101101111101110111111110000000011011101111010101101101111101110111100001000000000000101010101010101010101010101010101010101010101010101 1
b11010 2
1$
#620000
0$
#630000
b1110101011111000000001101110111101010110110111110111011111111000000001101110111101010110110111110111011110000100000000000010101010101010101010101010101010101010101010101010101 1
b11011 2
1$
#640000
0$
#650000
b11010101111100000000110111011110101011011011111011101111111100000000110111011110101011011011111011101111000010000000000001010101010101010101010101010101010101010101010101010101 1
b11100 2
1$
#660000
0$
#670000
b11 "
b11 -
b1010111110000000011011101111010101101101111101110111111110000000011011101111010101101101111101110111100001000000000000101010101010101010101010101010101010101010101010101010111 1
b11101 2
1$
#680000
0$
#690000
b1 "
b1 -
b1011111000000001101110111101010110110111110111011111111000000001101110111101010110110111110111011110000100000000000010101010101010101010101010101010101010101010101010101011101 1
b11110 2
1$
#700000
0$
#710000
b1111100000000110111011110101011011011111011101111111100000000110111011110101011011011111011101111000010000000000001010101010101010101010101010101010101010101010101010101110101 1
b11111 2
1$
#720000
0$
#730000
b11110000000011011101111010101101101111101110111111110000000011011101111010101101101111101110111100001000000000000101010101010101010101010101010101010101010101010101010111010101 1
b100000 2
1$
#740000
0$
#750000
b11 "
b11 -
b11000000001101110111101010110110111110111011111111000000001101110111101010110110111110111011110000100000000000010101010101010101010101010101010101010101010101010101011101010111 1
b100001 2
1$
#760000
0$
#770000
b110111011110101011011011111011101111111100000000110111011110101011011011111011101111000010000000000001010101010101010101010101010101010101010101010101010101110101011111 1
b100010 2
1$
#780000
0$
#790000
b0 "
b0 -
b11011101111010101101101111101110111111110000000011011101111010101101101111101110111100001000000000000101010101010101010101010101010101010101010101010101010111010101111100 1
b100011 2
1$
#800000
0$
#810000
b1101110111101010110110111110111011111111000000001101110111101010110110111110111011110000100000000000010101010101010101010101010101010101010101010101010101011101010111110000 1
b100100 2
1$
#820000
0$
#830000
b110111011110101011011011111011101111111100000000110111011110101011011011111011101111000010000000000001010101010101010101010101010101010101010101010101010101110101011111000000 1
b100101 2
1$
#840000
0$
#850000
b11011101111010101101101111101110111111110000000011011101111010101101101111101110111100001000000000000101010101010101010101010101010101010101010101010101010111010101111100000000 1
b100110 2
1$
#860000
0$
#870000
b11 "
b11 -
b1110111101010110110111110111011111111000000001101110111101010110110111110111011110000100000000000010101010101010101010101010101010101010101010101010101011101010111110000000011 1
b100111 2
1$
#880000
0$
#890000
b1 "
b1 -
b11011110101011011011111011101111111100000000110111011110101011011011111011101111000010000000000001010101010101010101010101010101010101010101010101010101110101011111000000001101 1
b101000 2
1$
#900000
0$
#910000
b11 "
b11 -
b1111010101101101111101110111111110000000011011101111010101101101111101110111100001000000000000101010101010101010101010101010101010101010101010101010111010101111100000000110111 1
b101001 2
1$
#920000
0$
#930000
b1 "
b1 -
b11101010110110111110111011111111000000001101110111101010110110111110111011110000100000000000010101010101010101010101010101010101010101010101010101011101010111110000000011011101 1
b101010 2
1$
#940000
0$
#950000
b11 "
b11 -
b10101011011011111011101111111100000000110111011110101011011011111011101111000010000000000001010101010101010101010101010101010101010101010101010101110101011111000000001101110111 1
b101011 2
1$
#960000
0$
#970000
b10 "
b10 -
b10101101101111101110111111110000000011011101111010101101101111101110111100001000000000000101010101010101010101010101010101010101010101010101010111010101111100000000110111011110 1
b101100 2
1$
#980000
0$
#990000
b10110110111110111011111111000000001101110111101010110110111110111011110000100000000000010101010101010101010101010101010101010101010101010101011101010111110000000011011101111010 1
b101101 2
1$
#1000000
0$
#1010000
b11011011111011101111111100000000110111011110101011011011111011101111000010000000000001010101010101010101010101010101010101010101010101010101110101011111000000001101110111101010 1
b101110 2
1$
#1020000
0$
#1030000
b11 "
b11 -
b1101111101110111111110000000011011101111010101101101111101110111100001000000000000101010101010101010101010101010101010101010101010101010111010101111100000000110111011110101011 1
b101111 2
1$
#1040000
0$
#1050000
b1 "
b1 -
b10111110111011111111000000001101110111101010110110111110111011110000100000000000010101010101010101010101010101010101010101010101010101011101010111110000000011011101111010101101 1
b110000 2
1$
#1060000
0$
#1070000
b10 "
b10 -
b11111011101111111100000000110111011110101011011011111011101111000010000000000001010101010101010101010101010101010101010101010101010101110101011111000000001101110111101010110110 1
b110001 2
1$
#1080000
0$
#1090000
b11 "
b11 -
b11101110111111110000000011011101111010101101101111101110111100001000000000000101010101010101010101010101010101010101010101010101010111010101111100000000110111011110101011011011 1
b110010 2
1$
#1100000
0$
#1110000
b10111011111111000000001101110111101010110110111110111011110000100000000000010101010101010101010101010101010101010101010101010101011101010111110000000011011101111010101101101111 1
b110011 2
1$
#1120000
0$
#1130000
b10 "
b10 -
b11101111111100000000110111011110101011011011111011101111000010000000000001010101010101010101010101010101010101010101010101010101110101011111000000001101110111101010110110111110 1
b110100 2
1$
#1140000
0$
#1150000
b11 "
b11 -
b10111111110000000011011101111010101101101111101110111100001000000000000101010101010101010101010101010101010101010101010101010111010101111100000000110111011110101011011011111011 1
b110101 2
1$
#1160000
0$
#1170000
b10 "
b10 -
b11111111000000001101110111101010110110111110111011110000100000000000010101010101010101010101010101010101010101010101010101011101010111110000000011011101111010101101101111101110 1
b110110 2
1$
#1180000
0$
#1190000
b11 "
b11 -
b11111100000000110111011110101011011011111011101111000010000000000001010101010101010101010101010101010101010101010101010101110101011111000000001101110111101010110110111110111011 1
b110111 2
1$
#1200000
0$
#1210000
b11110000000011011101111010101101101111101110111100001000000000000101010101010101010101010101010101010101010101010101010111010101111100000000110111011110101011011011111011101111 1
b111000 2
1$
#1220000
0$
#1230000
b11000000001101110111101010110110111110111011110000100000000000010101010101010101010101010101010101010101010101010101011101010111110000000011011101111010101101101111101110111111 1
b111001 2
1$
#1240000
0$
#1250000
b110111011110101011011011111011101111000010000000000001010101010101010101010101010101010101010101010101010101110101011111000000001101110111101010110110111110111011111111 1
b111010 2
1$
#1260000
0$
#1270000
b0 "
b0 -
b11011101111010101101101111101110111100001000000000000101010101010101010101010101010101010101010101010101010111010101111100000000110111011110101011011011111011101111111100 1
b111011 2
1$
#1280000
0$
#1290000
b1101110111101010110110111110111011110000100000000000010101010101010101010101010101010101010101010101010101011101010111110000000011011101111010101101101111101110111111110000 1
b111100 2
1$
#1300000
0$
#1310000
b110111011110101011011011111011101111000010000000000001010101010101010101010101010101010101010101010101010101110101011111000000001101110111101010110110111110111011111111000000 1
b111101 2
1$
#1320000
0$
#1330000
b11011101111010101101101111101110111100001000000000000101010101010101010101010101010101010101010101010101010111010101111100000000110111011110101011011011111011101111111100000000 1
b111110 2
1$
#1340000
0$
#1350000
b11 "
b11 -
b1110111101010110110111110111011110000100000000000010101010101010101010101010101010101010101010101010101011101010111110000000011011101111010101101101111101110111111110000000011 1
b111111 2
1$
#1360000
0$
#1370000
b1 "
b1 -
b11011110101011011011111011101111000010000000000001010101010101010101010101010101010101010101010101010101110101011111000000001101110111101010110110111110111011111111000000001101 1
b1000000 2
1$
#1380000
0$
#1390000
b11 "
b11 -
b1111010101101101111101110111100001000000000000101010101010101010101010101010101010101010101010101010111010101111100000000110111011110101011011011111011101111111100000000110111 1
b1000001 2
1$
#1400000
0$
#1410000
b1 "
b1 -
b11101010110110111110111011110000100000000000010101010101010101010101010101010101010101010101010101011101010111110000000011011101111010101101101111101110111111110000000011011101 1
b1000010 2
1$
#1420000
0$
#1430000
b11 "
b11 -
b10101011011011111011101111000010000000000001010101010101010101010101010101010101010101010101010101110101011111000000001101110111101010110110111110111011111111000000001101110111 1
b1000011 2
1$
#1440000
0$
#1450000
b10 "
b10 -
b10101101101111101110111100001000000000000101010101010101010101010101010101010101010101010101010111010101111100000000110111011110101011011011111011101111111100000000110111011110 1
b1000100 2
1$
#1460000
0$
#1470000
b10110110111110111011110000100000000000010101010101010101010101010101010101010101010101010101011101010111110000000011011101111010101101101111101110111111110000000011011101111010 1
b1000101 2
1$
#1480000
0$
#1490000
b11011011111011101111000010000000000001010101010101010101010101010101010101010101010101010101110101011111000000001101110111101010110110111110111011111111000000001101110111101010 1
b1000110 2
1$
#1500000
0$
#1510000
b11 "
b11 -
b1101111101110111100001000000000000101010101010101010101010101010101010101010101010101010111010101111100000000110111011110101011011011111011101111111100000000110111011110101011 1
b1000111 2
1$
#1520000
0$
#1530000
b1 "
b1 -
b10111110111011110000100000000000010101010101010101010101010101010101010101010101010101011101010111110000000011011101111010101101101111101110111111110000000011011101111010101101 1
b1001000 2
1$
#1540000
0$
#1550000
b10 "
b10 -
b11111011101111000010000000000001010101010101010101010101010101010101010101010101010101110101011111000000001101110111101010110110111110111011111111000000001101110111101010110110 1
b1001001 2
1$
#1560000
0$
#1570000
b11 "
b11 -
b11101110111100001000000000000101010101010101010101010101010101010101010101010101010111010101111100000000110111011110101011011011111011101111111100000000110111011110101011011011 1
b1001010 2
1$
#1580000
0$
#1590000
b10111011110000100000000000010101010101010101010101010101010101010101010101010101011101010111110000000011011101111010101101101111101110111111110000000011011101111010101101101111 1
b1001011 2
1$
#1600000
0$
#1610000
b10 "
b10 -
b11101111000010000000000001010101010101010101010101010101010101010101010101010101110101011111000000001101110111101010110110111110111011111111000000001101110111101010110110111110 1
b1001100 2
1$
#1620000
0$
#1630000
b11 "
b11 -
b10111100001000000000000101010101010101010101010101010101010101010101010101010111010101111100000000110111011110101011011011111011101111111100000000110111011110101011011011111011 1
b1001101 2
1$
#1640000
0$
#1650000
b10 "
b10 -
b11110000100000000000010101010101010101010101010101010101010101010101010101011101010111110000000011011101111010101101101111101110111111110000000011011101111010101101101111101110 1
b1001110 2
1$
#1660000
0$
#1670000
b11 "
b11 -
b11000010000000000001010101010101010101010101010101010101010101010101010101110101011111000000001101110111101010110110111110111011111111000000001101110111101010110110111110111011 1
b1001111 2
1$
#1680000
0$
#1690000
b1000000000000101010101010101010101010101010101010101010101010101010111010101111100000000110111011110101011011011111011101111111100000000110111011110101011011011111011101111 1
b1010000 2
1$
#1700000
0$
#1710000
b0 "
b0 -
b100000000000010101010101010101010101010101010101010101010101010101011101010111110000000011011101111010101101101111101110111111110000000011011101111010101101101111101110111100 1
b1010001 2
1$
#1720000
0$
#1730000
b10000000000001010101010101010101010101010101010101010101010101010101110101011111000000001101110111101010110110111110111011111111000000001101110111101010110110111110111011110000 1
b1010010 2
1$
#1740000
0$
#1750000
b10 "
b10 -
b101010101010101010101010101010101010101010101010101010111010101111100000000110111011110101011011011111011101111111100000000110111011110101011011011111011101111000010 1
b1010011 2
1$
#1760000
0$
#1770000
b0 "
b0 -
b10101010101010101010101010101010101010101010101010101011101010111110000000011011101111010101101101111101110111111110000000011011101111010101101101111101110111100001000 1
b1010100 2
1$
#1780000
0$
#1790000
b1010101010101010101010101010101010101010101010101010101110101011111000000001101110111101010110110111110111011111111000000001101110111101010110110111110111011110000100000 1
b1010101 2
1$
#1800000
0$
#1810000
b101010101010101010101010101010101010101010101010101010111010101111100000000110111011110101011011011111011101111111100000000110111011110101011011011111011101111000010000000 1
b1010110 2
1$
#1820000
0$
#1830000
b10101010101010101010101010101010101010101010101010101011101010111110000000011011101111010101101101111101110111111110000000011011101111010101101101111101110111100001000000000 1
b1010111 2
1$
#1840000
0$
#1850000
b10 6
b1010101010101010101010101010101010101010101010101010101110101011111000000001101110111101010110110111110111011111111000000001101110111101010110110111110111011110000100000000000 1
b0 2
1$
#1860000
0$
#1870000
b1001011 /
b11 "
b11 -
b1 0
1$
#1880000
0$
#1890000
b101101 /
b1 "
b1 -
b10 0
1$
#1900000
0$
#1910000
b10110100 /
b0 "
b0 -
b11 0
1$
#1920000
0$
#1930000
b1 8
b1 3
b11010010 /
b10 "
b10 -
b0 0
1$
#1940000
0$
#1950000
b1001011 /
b11 "
b11 -
b1 0
1$
#1960000
0$
#1970000
b101101 /
b1 "
b1 -
b10 0
1$
#1980000
0$
#1990000
b10110100 /
b0 "
b0 -
b11 0
1$
#2000000
0$
#2010000
b10 8
b10 3
b11010010 /
b10 "
b10 -
b0 0
1$
#2020000
0$
#2030000
b1001011 /
b11 "
b11 -
b1 0
1$
#2040000
0$
#2050000
b101101 /
b1 "
b1 -
b10 0
1$
#2060000
0$
#2070000
b10110100 /
b0 "
b0 -
b11 0
1$
#2080000
0$
#2090000
b11 8
b11 3
b11010010 /
b10 "
b10 -
b0 0
1$
#2100000
0$
#2110000
b1001011 /
b11 "
b11 -
b1 0
1$
#2120000
0$
#2130000
b101101 /
b1 "
b1 -
b10 0
1$
#2140000
0$
#2150000
b10110100 /
b0 "
b0 -
b11 0
1$
#2160000
0$
#2170000
b100 8
b100 3
b11010010 /
b10 "
b10 -
b0 0
1$
#2180000
0$
#2190000
b1001011 /
b11 "
b11 -
b1 0
b11000101 D
1$
#2200000
0$
#2210000
b11000101 +
b11000101 A
b11000101 H
b101101 /
b1 "
b1 -
b10 0
1$
#2220000
0$
#2230000
b10110100 /
b0 "
b0 -
b11 0
1$
#2240000
0$
#2250000
b101 8
b101 3
b11000101 /
b10 "
b10 -
b0 0
1$
#2260000
0$
#2270000
b10111 /
b11 "
b11 -
b1 0
1$
#2280000
0$
#2290000
b1011100 /
b0 "
b0 -
b10 0
1$
#2300000
0$
#2310000
b1110001 /
b1 "
b1 -
b11 0
1$
#2320000
0$
#2330000
b110 8
b110 3
b11000101 /
b0 0
1$
#2340000
0$
#2350000
b10111 /
b11 "
b11 -
b1 0
1$
#2360000
0$
#2370000
b1011100 /
b0 "
b0 -
b10 0
1$
#2380000
0$
#2390000
b1110001 /
b1 "
b1 -
b11 0
1$
#2400000
0$
#2410000
04
1.
b11000101 /
b0 6
1$
#2420000
0$
#2430000
b0 8
b0 0
b0 3
0!
0.
1$
#2440000
0$
#2450000
b11010010 D
1$
#2460000
0$
#2470000
b11010010 /
b11010010 +
b11010010 A
b11010010 H
1$
